^F:\USERS\PEDRO\RESPALDOWIN10\PEDRO\DESARROLLO\LIBS\GLEW\SRC\GLEW.C
/c /I..\..\INCLUDE /Zi /nologo /W3 /WX- /diagnostics:classic /Od /D WIN32 /D WIN32_LEAN_AND_MEAN /D GLEW_BUILD /D _WINDLL /Gm- /EHsc /RTC1 /MDd /GS /Gy- /fp:precise /Zc:wchar_t /Zc:forScope /Zc:inline /Fo"TMP\GLEW_SHARED\DEBUG\X64\\" /Fd"TMP\GLEW_SHARED\DEBUG\X64\VC141.PDB" /Gd /TC F:\USERS\PEDRO\RESPALDOWIN10\PEDRO\DESARROLLO\LIBS\GLEW\SRC\GLEW.C
^F:\USERS\PEDRO\RESPALDOWIN10\PEDRO\MYDIR\LIBS\GLEW\SRC\GLEW.C
/c /I..\..\INCLUDE /Zi /nologo /W3 /WX- /diagnostics:classic /Od /D WIN32 /D WIN32_LEAN_AND_MEAN /D GLEW_BUILD /D _WINDLL /Gm- /EHsc /RTC1 /MDd /GS /Gy- /fp:precise /Zc:wchar_t /Zc:forScope /Zc:inline /Fo"TMP\GLEW_SHARED\DEBUG\X64\\" /Fd"TMP\GLEW_SHARED\DEBUG\X64\VC141.PDB" /Gd /TC F:\USERS\PEDRO\RESPALDOWIN10\PEDRO\MYDIR\LIBS\GLEW\SRC\GLEW.C
^C:\USERS\ASR29\DESKTOP\PROGRAMACIÓN\MYDIR\LIBS\GLEW\SRC\GLEW.C
/c /I..\..\INCLUDE /Zi /nologo /W3 /WX- /diagnostics:classic /Od /D WIN32 /D WIN32_LEAN_AND_MEAN /D GLEW_BUILD /D _WINDLL /Gm- /EHsc /RTC1 /MDd /GS /Gy- /fp:precise /Zc:wchar_t /Zc:forScope /Zc:inline /Fo"TMP\GLEW_SHARED\DEBUG\X64\\" /Fd"TMP\GLEW_SHARED\DEBUG\X64\VC141.PDB" /Gd /TC C:\USERS\ASR29\DESKTOP\PROGRAMACIÓN\MYDIR\LIBS\GLEW\SRC\GLEW.C
^C:\USERS\ASR29\DESKTOP\MYDIR2\LIBS\GLEW\SRC\GLEW.C
/c /I..\..\INCLUDE /Zi /nologo /W3 /WX- /diagnostics:classic /Od /D WIN32 /D WIN32_LEAN_AND_MEAN /D GLEW_BUILD /D _WINDLL /Gm- /EHsc /RTC1 /MDd /GS /Gy- /fp:precise /Zc:wchar_t /Zc:forScope /Zc:inline /Fo"TMP\GLEW_SHARED\DEBUG\X64\\" /Fd"TMP\GLEW_SHARED\DEBUG\X64\VC141.PDB" /Gd /TC C:\USERS\ASR29\DESKTOP\MYDIR2\LIBS\GLEW\SRC\GLEW.C
