^F:\USERS\PEDRO\RESPALDOWIN10\PEDRO\DESARROLLO\LIBS\GLEW\BUILD\VC12\TMP\GLEW_SHARED\DEBUG\X64\GLEW.OBJ|F:\USERS\PEDRO\RESPALDOWIN10\PEDRO\DESARROLLO\LIBS\GLEW\BUILD\VC12\TMP\GLEW_SHARED\DEBUG\X64\GLEW.RES
/OUT:"..\..\BIN\DEBUG\X64\GLEW32D.DLL" /INCREMENTAL:NO /NOLOGO OPENGL32.LIB KERNEL32.LIB USER32.LIB GDI32.LIB WINSPOOL.LIB COMDLG32.LIB ADVAPI32.LIB SHELL32.LIB OLE32.LIB OLEAUT32.LIB UUID.LIB ODBC32.LIB ODBCCP32.LIB /MANIFEST /MANIFESTUAC:"level='asInvoker' uiAccess='false'" /manifest:embed /DEBUG /PDB:"..\..\BIN\DEBUG\X64\GLEW32D.PDB" /SUBSYSTEM:CONSOLE /TLBID:1 /BASE:"0x62AA0000" /DYNAMICBASE /NXCOMPAT /IMPLIB:"..\..\LIB\DEBUG\X64\GLEW32D.LIB" /MACHINE:X64 /DLL TMP\GLEW_SHARED\DEBUG\X64\GLEW.RESTMP\GLEW_SHARED\DEBUG\X64\GLEW.OBJ
^F:\USERS\PEDRO\RESPALDOWIN10\PEDRO\MYDIR\LIBS\GLEW\BUILD\VC12\TMP\GLEW_SHARED\DEBUG\X64\GLEW.OBJ|F:\USERS\PEDRO\RESPALDOWIN10\PEDRO\MYDIR\LIBS\GLEW\BUILD\VC12\TMP\GLEW_SHARED\DEBUG\X64\GLEW.RES
/OUT:"..\..\BIN\DEBUG\X64\GLEW32D.DLL" /INCREMENTAL:NO /NOLOGO OPENGL32.LIB KERNEL32.LIB USER32.LIB GDI32.LIB WINSPOOL.LIB COMDLG32.LIB ADVAPI32.LIB SHELL32.LIB OLE32.LIB OLEAUT32.LIB UUID.LIB ODBC32.LIB ODBCCP32.LIB /MANIFEST /MANIFESTUAC:"level='asInvoker' uiAccess='false'" /manifest:embed /DEBUG /PDB:"..\..\BIN\DEBUG\X64\GLEW32D.PDB" /SUBSYSTEM:CONSOLE /TLBID:1 /BASE:"0x62AA0000" /DYNAMICBASE /NXCOMPAT /IMPLIB:"..\..\LIB\DEBUG\X64\GLEW32D.LIB" /MACHINE:X64 /DLL TMP\GLEW_SHARED\DEBUG\X64\GLEW.RESTMP\GLEW_SHARED\DEBUG\X64\GLEW.OBJ
^C:\USERS\ASR29\DESKTOP\PROGRAMACIÓN\MYDIR\LIBS\GLEW\BUILD\VC12\TMP\GLEW_SHARED\DEBUG\X64\GLEW.OBJ|C:\USERS\ASR29\DESKTOP\PROGRAMACIÓN\MYDIR\LIBS\GLEW\BUILD\VC12\TMP\GLEW_SHARED\DEBUG\X64\GLEW.RES
/OUT:"..\..\BIN\DEBUG\X64\GLEW32D.DLL" /INCREMENTAL:NO /NOLOGO OPENGL32.LIB KERNEL32.LIB USER32.LIB GDI32.LIB WINSPOOL.LIB COMDLG32.LIB ADVAPI32.LIB SHELL32.LIB OLE32.LIB OLEAUT32.LIB UUID.LIB ODBC32.LIB ODBCCP32.LIB /MANIFEST /MANIFESTUAC:"level='asInvoker' uiAccess='false'" /manifest:embed /DEBUG /PDB:"..\..\BIN\DEBUG\X64\GLEW32D.PDB" /SUBSYSTEM:CONSOLE /TLBID:1 /BASE:"0x62AA0000" /DYNAMICBASE /NXCOMPAT /IMPLIB:"..\..\LIB\DEBUG\X64\GLEW32D.LIB" /MACHINE:X64 /DLL TMP\GLEW_SHARED\DEBUG\X64\GLEW.RESTMP\GLEW_SHARED\DEBUG\X64\GLEW.OBJ
^C:\USERS\ASR29\DESKTOP\MYDIR2\LIBS\GLEW\BUILD\VC12\TMP\GLEW_SHARED\DEBUG\X64\GLEW.OBJ|C:\USERS\ASR29\DESKTOP\MYDIR2\LIBS\GLEW\BUILD\VC12\TMP\GLEW_SHARED\DEBUG\X64\GLEW.RES
/OUT:"..\..\BIN\DEBUG\X64\GLEW32D.DLL" /INCREMENTAL:NO /NOLOGO OPENGL32.LIB KERNEL32.LIB USER32.LIB GDI32.LIB WINSPOOL.LIB COMDLG32.LIB ADVAPI32.LIB SHELL32.LIB OLE32.LIB OLEAUT32.LIB UUID.LIB ODBC32.LIB ODBCCP32.LIB /MANIFEST /MANIFESTUAC:"level='asInvoker' uiAccess='false'" /manifest:embed /DEBUG /PDB:"..\..\BIN\DEBUG\X64\GLEW32D.PDB" /SUBSYSTEM:CONSOLE /TLBID:1 /BASE:"0x62AA0000" /DYNAMICBASE /NXCOMPAT /IMPLIB:"..\..\LIB\DEBUG\X64\GLEW32D.LIB" /MACHINE:X64 /DLL TMP\GLEW_SHARED\DEBUG\X64\GLEW.RESTMP\GLEW_SHARED\DEBUG\X64\GLEW.OBJ
